// Jest Snapshot v1, https://goo.gl/fbAQLP

exports[`the TodoList component should render correctly 1`] = `
<div>
  <h1>
    Todo List
  </h1>
  <ul />
  <Jss(AddForm)
    addItem={[Function]}
  />
</div>
`;
