// Jest Snapshot v1, https://goo.gl/fbAQLP

exports[`the AddForm component should render correctly 1`] = `
<form
  id="add-item-form"
  onSubmit={[Function]}
>
  <input
    id="label"
    onChange={[Function]}
    type="text"
    value=""
  />
  <button>
    Add Item
  </button>
</form>
`;
